<?xml version="1.0" encoding="UTF-8"?>
<!DOCTYPE svg  PUBLIC '-//W3C//DTD SVG 1.1//EN'  'http://www.w3.org/Graphics/SVG/1.1/DTD/svg11.dtd'>
<svg width="55px" height="55px" enable-background="new 0 0 1000 1000" version="1.1" viewBox="0 0 1000 1000" xml:space="preserve" xmlns="http://www.w3.org/2000/svg">
<path fill="#333333" d="m778.9 848.5c55.5 0 105-17.1 147.1-50.8 42.5-34 64-81.3 64-140.5 0-71-23.7-123-70.5-154.4-44.5-30-98.8-45.7-161.3-46.7 12-53.5 38.9-97.4 79.8-130.7 43.1-35 90.6-62.7 141.1-82.2l3.4-1.3v-90.4l-7 2.3c-49.6 16.5-99.9 37.9-149.5 63.5-49.8 25.7-94.4 57.3-132.6 93.9s-69.9 78.7-94 125.4c-24.2 46.8-36.5 101.1-36.5 161.1 0 66.9 17.4 125.9 51.8 175.3 34.7 50.1 90 75.5 164.2 75.5z"/>
<path fill="#333333" d="m61.8 773.1c34.8 50 90.1 75.4 164.3 75.4 55.5 0 105-17.1 147.1-50.8 42.5-34 64-81.3 64-140.5 0-71-23.7-123-70.5-154.4-44.5-30-98.8-45.7-161.3-46.7 12-53.5 38.8-97.4 79.8-130.7 43.1-35 90.6-62.7 141.1-82.2l3.4-1.3v-90.4l-7 2.3c-49.6 16.5-99.9 37.9-149.5 63.5-49.8 25.7-94.4 57.3-132.6 93.8-38.2 36.6-69.9 78.7-94 125.4-24.3 46.9-36.6 101.2-36.6 161.2 0 66.9 17.4 125.9 51.8 175.4z"/>
</svg>
